<?xml version="1.0" encoding="utf-8"?>
<!-- Generator: Adobe Illustrator 25.1.0, SVG Export Plug-In . SVG Version: 6.00 Build 0)  -->
<svg version="1.1" id="Ebene_1" xmlns="http://www.w3.org/2000/svg" xmlns:xlink="http://www.w3.org/1999/xlink" x="0px" y="0px"
	 viewBox="0 0 504.4 212.5" style="enable-background:new 0 0 504.4 212.5;" xml:space="preserve">
<style type="text/css">
	.st0{fill:#009EE0;stroke:#009EE0;stroke-width:2;}
	.st1{fill:#009EE0;}
	.st2{fill:none;}
</style>
<g id="Kreise_x5F_cyan">
	<circle class="st0" cx="398.2" cy="106.3" r="105.3"/>
</g>
<g id="Kreis_innen_weis">
	<path class="st1" d="M105.3,1C47.1,1,0,48.1,0,106.3c0,58.1,47.1,105.3,105.3,105.3c58.1,0,105.3-47.1,105.3-105.3
		C210.5,48.1,163.4,1,105.3,1z M105.6,167.6c-34.3,0-62.1-27.8-62.1-62.1c0-34.3,27.8-62.1,62.1-62.1s62.1,27.8,62.1,62.1
		S139.9,167.6,105.6,167.6z"/>
	<circle class="st2" cx="105.6" cy="105.5" r="62.1"/>
</g>
</svg>
